module gitlab-api

go 1.17

require github.com/xanzy/go-gitlab v0.62.0

require (
	github.com/golang/protobuf v1.2.0 // indirect
	github.com/google/go-querystring v1.1.0 // indirect
	github.com/hashicorp/go-cleanhttp v0.5.1 // indirect
	github.com/hashicorp/go-retryablehttp v0.6.8 // indirect
	golang.org/x/net v0.0.0-20201021035429-f5854403a974 // indirect
	golang.org/x/oauth2 v0.0.0-20181106182150-f42d05182288 // indirect
	golang.org/x/time v0.0.0-20191024005414-555d28b269f0 // indirect
	google.golang.org/appengine v1.3.0 // indirect
)
